381 = {

    # Misc
    culture = deshaki
    religion = mother_akan
	holding = castle_holding

    # History
}

382 = {

    # Misc
    culture = deshaki
    religion = mother_akan
	holding = castle_holding

    # History
}

397 = {

    # Misc
    culture = deshaki
    religion = mother_akan
	holding = castle_holding

    # History
}

399 = {

    # Misc
    culture = deshaki
    religion = mother_akan
	holding = castle_holding

    # History
}

403 = {

    # Misc
    culture = deshaki
    religion = mother_akan
	holding = castle_holding

    # History
}

404 = {

    # Misc
    culture = deshaki
    religion = mother_akan
	holding = castle_holding

    # History
}

405 = {

    # Misc
    culture = deshaki
    religion = mother_akan
	holding = castle_holding

    # History
}

453 = {

    # Misc
    culture = deshaki
    religion = mother_akan
	holding = castle_holding

    # History
}

458 = {

    # Misc
    culture = deshaki
    religion = mother_akan
	holding = castle_holding

    # History
}